…
1.3) 95% ДИ для доли внутри группы - задание со звёздочкой.

``` r
factor_stat_table <- cleaned_data %>% 
  select(c(Category, Description))%>%
  count(Category, Description)%>%
  group_by(Category)%>%
  mutate('Percentage of сategory' = str_c(round(n/sum(n)*100, 2), "%"))%>%
  rename('Number of cases' = n) 

factor_stat_table
```

    ## # A tibble: 243 x 4
    ## # Groups:   Category [2]
    ##    Category Description                 `Number of cases` Percentage of сatego~1
    ##    <fct>    <fct>                                   <int> <chr>                 
    ##  1 Cookie   Cookie, almond                              1 1%                    
    ##  2 Cookie   Cookie, animal                              1 1%                    
    ##  3 Cookie   Cookie, animal, with frost~                 1 1%                    
    ##  4 Cookie   Cookie, applesauce                          1 1%                    
    ##  5 Cookie   Cookie, baby food                           1 1%                    
    ##  6 Cookie   Cookie, bar, with chocolate                 1 1%                    
    ##  7 Cookie   Cookie, batter or dough, r~                 1 1%                    
    ##  8 Cookie   Cookie, biscotti                            1 1%                    
    ##  9 Cookie   Cookie, brownie, fat free,~                 1 1%                    
    ## 10 Cookie   Cookie, brownie, NS as to ~                 1 1%                    
    ## # i 233 more rows
    ## # i abbreviated name: 1: `Percentage of сategory`
…
## Проверка на нормальность

1)  Оцените каждую переменную на соответствие нормальному распределению
    с помощью теста Шапиро-Уилка. Какие из переменных являются
    нормальными и как как вы это поняли?

``` r
cleaned_data %>% 
  pivot_longer(!c(Category, Description, 'Nutrient Data Bank Number'), names_to = "Nutrient")%>%
  group_by(Nutrient)%>%
  summarise('p value' = shapiro.test(value)$p.value*35)%>%
  arrange(desc(`p value`))
```

    ## # A tibble: 35 x 2
    ##    Nutrient          `p value`
    ##    <chr>                 <dbl>
    ##  1 Sodium             2.39e- 6
    ##  2 Zinc               5.51e- 9
    ##  3 Phosphorus         2.10e- 9
    ##  4 Magnesium          8.36e-12
    ##  5 Protein            1.16e-13
    ##  6 Potassium          8.57e-14
    ##  7 Total Lipid        1.57e-14
    ##  8 Monosaturated Fat  1.03e-15
    ##  9 Carbohydrate       2.88e-16
    ## 10 Polysaturated Fat  8.33e-17
    ## # i 25 more rows
…
``` r
cleaned_data %>% 
  pivot_longer(!c(Category, Description, 'Nutrient Data Bank Number'), names_to = "Nutrient")%>%
  group_by(Nutrient)%>%
  summarise('p value adjusted' = wilcox.test(value ~ Category)$p.value*35)%>%
  arrange(desc(`p value adjusted`))
```

    ## # A tibble: 35 x 2
    ##    Nutrient              `p value adjusted`
    ##    <chr>                              <dbl>
    ##  1 Cholesterol                   11.1      
    ##  2 Beta Cryptoxanthin             8.44     
    ##  3 Zinc                           2.97     
    ##  4 Vitamin K                      0.0197   
    ##  5 Retinol                        0.0109   
    ##  6 Lutein and Zeaxanthin          0.00111  
    ##  7 Calcium                        0.000409 
    ##  8 Magnesium                      0.000204 
    ##  9 Lycopene                       0.000136 
    ## 10 Choline                        0.0000461
    ## # i 25 more rows
…
